;
; This file is part of ArtPRO.
; Copyright (C) 1996-2018 Frank Pagels
;
; ArtPRO is free software: you can redistribute it and/or modify
; it under the terms of the GNU General Public License as published by
; the Free Software Foundation, either version 3 of the License, or
; (at your option) any later version.
;
; ArtPRO is distributed in the hope that it will be useful,
; but WITHOUT ANY WARRANTY; without even the implied warranty of
; MERCHANTABILITY or FITNESS FOR A PARTICULAR PURPOSE.  See the
; GNU General Public License for more details.
;
; You should have received a copy of the GNU General Public License
; along with ArtPRO.  If not, see <http://www.gnu.org/licenses/>.
;
 IFND LVOS_I
LVOS_I SET 1
CallLib MACRO
 IFNC '\2','' 
 IFC '\3','keep' 
 move.l a6,-(sp) 
 ENDC
 move.l \2,a6 
 ENDC
 jsr _LVO\1(a6) 
 IFNC '\2','' 
 IFC '\3','keep' 
 move.l (sp)+,a6 
 ENDC
 ENDC
 ENDM
_AGARexxHost=-30
_LockAmigaGuideBase=-36
_UnlockAmigaGuideBase=-42
_OpenAmigaGuideA=-54
_OpenAmigaGuideAsyncA=-60
_CloseAmigaGuide=-66
_AmigaGuideSignal=-72
_GetAmigaGuideMsg=-78
_ReplyAmigaGuideMsg=-84
_SetAmigaGuideContextA=-90
_SendAmigaGuideContextA=-96
_SendAmigaGuideCmdA=-102
_SetAmigaGuideAttrsA=-108
_GetAmigaGuideAttr=-114
_AddAmigaGuideHostA=-138
_RemoveAmigaGuideHostA=-144
_GetAmigaGuideString=-210
_AllocFileRequest=-30 
_FreeFileRequest=-36
_RequestFile=-42
_AllocAslRequest=-48
_FreeAslRequest=-54
_AslRequest=-60
_ResetBattClock=-6
_ReadBattClock=-12
_WriteBattClock=-18
_ReadBattClockMem=-24
_WriteBattClockMem=-30
_ObtainBattSemaphore=-6
_ReleaseBattSemaphore=-12
_ReadBattMem=-18
_WriteBattMem=-24
_OpenEngine=-30
_CloseEngine=-36
_SetInfoA=-42
_ObtainInfoA=-48
_ReleaseInfoA=-54
_OwnCard=-6
_ReleaseCard=-12
_GetCardMap=-18
_BeginCardAccess=-24
_EndCardAccess=-30
_ReadCardStatus=-36
_CardResetRemove=-42
_CardMiscControl=-48
_CardAccessSpeed=-54
_CardProgramVoltage=-60
_CardResetCard=-66
_CopyTuple=-72
_DeviceTuple=-78
_IfAmigaXIP=-84
_CardForceChange equ -90
_CardChangeCount equ -96
_CardInterface equ -102
_AddICRVector=-6
_RemICRVector=-12
_AbleICR=-18
_SetICR=-24
_ConvertHSBToRGB equ -30
_ConvertRGBToHSB equ -36
_CreateCxObj=-30 
_CxBroker=-36
_ActivateCxObj=-42
_DeleteCxObj=-48
_DeleteCxObjAll=-54
_CxObjType=-60
_CxObjError=-66
_ClearCxObjError=-72
_SetCxObjPri=-78
_AttachCxObj=-84
_EnqueueCxObj=-90
_InsertCxObj=-96
_RemoveCxObj=-102
_FindBroker=-108
_SetTranslate=-114
_SetFilter=-120
_SetFilterIX=-126
_ParseIX=-132
_CxMsgType=-138
_CxMsgData=-144
_CxMsgID=-150
_DivertCxMsg=-156
_RouteCxMsg=-162
_DisposeCxMsg=-168
_InvertKeyMap=-174
_AddIEvents=-180
_CopyBrokerList=-186
_FreeBrokerList=-192
_BrokerCommand=-198
_MatchIX=-204
_CDInputHandler=-42
_RawKeyConvert=-48
_GetConSnip=-54 
_SetConSnip=-60
_AddConSnipHook=-66
_RemConSnipHook=-72
_RLDispatch=-30
_ObtainDataTypeA=-36
_ReleaseDataType=-42
_NewDTObjectA=-48
_DisposeDTObject=-54
_SetDTAttrsA=-60
_GetDTAttrsA=-66
_AddDTObject=-72
_RefreshDTObjectA=-78
_DoAsyncLayout=-84
_DoDTMethodA=-90
_RemoveDTObject=-96
_GetDTMethods=-102
_GetDTTriggerMethods:equ -108
_PrintDTObjectA=-114
_GetDTString=-138
_AllocUnit=-6
_FreeUnit=-12
_GetUnit=-18
_GiveUnit=-24
_GetUnitID=-30
_ReadUnitID=-36 
_OpenDiskFont=-30
_AvailFonts=-36
_NewFontContents=-42 
_DisposeFontContents:equ -48
_NewScaledDiskFont=-54 
_Open=-30
_Close=-36
_Read=-42
_Write=-48
_Input=-54
_Output=-60
_Seek=-66
_DeleteFile=-72
_Rename=-78
_Lock=-84
_UnLock=-90
_DupLock=-96
_Examine=-102
_ExNext=-108
_Info=-114
_CreateDir=-120
_CurrentDir=-126
_IoErr=-132
_CreateProc=-138
_Exit=-144
_LoadSeg=-150
_UnLoadSeg=-156
_GetPacket=-162
_QueuePacket=-168
_DeviceProc=-174
_SetComment=-180
_SetProtection=-186
_DateStamp=-192
_Delay=-198
_WaitForChar=-204
_ParentDir=-210
_IsInteractive=-216
_Execute=-222
_AllocDosObject=-228 
_FreeDosObject=-234
_DoPkt=-240
_SendPkt=-246
_WaitPkt=-252
_ReplyPkt=-258
_AbortPkt=-264
_LockRecord=-270
_LockRecords=-276
_UnLockRecord=-282
_UnLockRecords=-288
_SelectInput=-294
_SelectOutput=-300
_FGetC=-306
_FPutC=-312
_UnGetC=-318
_FRead=-324
_FWrite=-330
_FGets=-336
_FPuts=-342
_VFWritef=-348
_VFPrintf=-354
_Flush=-360
_SetVBuf=-366
_DupLockFromFH=-372
_OpenFromLock=-378
_ParentOffH=-384
_ExamineFH=-390
_SetFileDate=-396
_NameFromLock=-402
_NameFromFH=-408
_SplitName=-414
_SameLock=-420
_SetMode=-426
_ExAll=-432
_ReadLink=-438
_MakeLink=-444
_ChangeMode=-450
_SetFileSize=-456
_SetIoErr=-462
_Fault=-468
_PrintFault=-474
_ErrorReport=-480
_Cli=-492
_CreateNewProc=-498
_RunCommand=-504
_GetConsoleTask=-510
_SetConsoleTask=-516
_GetFileSysTask=-522
_SetFileSysTask=-528
_GetArgStr=-534
_SetArgStr=-540
_FindCliProc=-546
_MaxCli=-552
_SetCurrentDirName=-558
_GetCurrentDirName=-564
_SetProgramName=-570
_GetProgramName=-576
_SetPrompt=-582
_GetPrompt=-588
_SetProgramDir=-594
_GetProgramDir=-600
_SystemTagList=-606
_AssignLock=-612
_AssignLate=-618
_AssignPath=-624
_AssignAdd=-630
_RemAssignList=-636
_GetDeviceProc=-642
_FreeDeviceProc=-648
_LockDosList=-654
_UnLockDosList=-660
_AttemptLockDosList=-666
_RemDosEntry=-672
_AddDosEntry=-678
_FindDosEntry=-684
_NextDosEntry=-690
_MakeDosEntry=-696
_FreeDosEntry=-702
_IsFileSystem=-708
_Format=-714
_Relabel=-720
_Inhibit=-726
_AddBuffers=-732
_CompareDates=-738
_DateToStr=-744
_StrToDate=-750
_InternalLoadSeg=-756
_InternalUnLoadSeg=-762
_NewLoadSeg=-768
_AddSegment=-774
_FindSegment=-780
_RemSegment=-786
_CheckSignal=-792
_ReadArgs=-798
_FindArg=-804
_ReadItem=-810
_StrToLong=-816
_MatchFirst=-822
_MatchNext=-828
_MatchEnd=-834
_ParsePattern=-840
_MatchPattern=-846
_DosNameFromAnchor=-852
_FreeArgs=-858
_FilePart=-870
_PathPart=-876
_AddPart=-882
_StartNotify=-888
_EndNotify=-894
_SetVar=-900
_GetVar=-906
_DeleteVar=-912
_FindVar=-918
_CliInit=-924
_CliInitNewCli=-930
_CliInitRun=-936
_WriteChars=-942
_PutStr=-948
_VPrintf=-954
_ParsePatternNoCase=-966 
_MatchPatternNoCase=-972 
_DosGetString=-978
_SameDevice=-984 
_ExAllEnd=-990
_SetOwner=-996
_ObtainEngine=-30
_Supervisor=-30
_ExitIntr=-36
_Schedule=-42
_Reschedule=-48
_Switch=-54
_Dispatch=-60
_Exception=-66
_InitCode=-72
_InitStruct=-78
_MakeLibrary=-84
_MakeFunctions=-90
_FindResident=-96
_InitResident=-102
_Alert=-108
_Debug=-114
_Disable=-120
_Enable=-126
_Forbid=-132
_Permit=-138
_SetSR=-144
_SuperState=-150
_UserState=-156
_SetIntVector=-162
_AddIntServer=-168
_RemIntServer=-174
_Cause=-180
_Allocate=-186
_Deallocate=-192
_AllocMem=-198
_AllocAbs=-204
_FreeMem=-210
_AvailMem=-216
_AllocEntry=-222
_FreeEntry=-228
_Insert=-234
_AddHead=-240
_AddTail=-246
_Remove=-252
_RemHead=-258
_RemTail=-264
_Enqueue=-270
_FindName=-276
_AddTask=-282
_RemTask=-288
_FindTask=-294
_SetTaskPri=-300
_SetSignal=-306
_SetExcept=-312
_Wait=-318
_Signal=-324
_AllocSignal=-330
_FreeSignal=-336
_AllocTrap=-342
_FreeTrap=-348
_AddPort=-354
_RemPort=-360
_PutMsg=-366
_GetMsg=-372
_ReplyMsg=-378
_WaitPort=-384
_FindPort=-390
_AddLibrary=-396
_RemLibrary=-402
_OldOpenLibrary=-408
_CloseLibrary=-414
_SetFunction=-420
_SumLibrary=-426
_AddDevice=-432
_RemDevice=-438
_OpenDevice=-444
_CloseDevice=-450
_DoIO=-456
_SendIO=-462
_CheckIO=-468
_WaitIO=-474
_AbortIO=-480
_AddResource=-486
_RemResource=-492
_OpenResource=-498
_RawIOInit=-504
_RawMayGetChar=-510
_RawPutChar=-516
_RawDoFmt=-522
_GetCC=-528
_TypeOfMem=-534
_Procure=-540
_Vacate=-546
_OpenLibrary=-552
_InitSemaphore=-558 
_ObtainSemaphore=-564
_ReleaseSemaphore=-570
_AttemptSemaphore=-576
_ObtainSemaphoreList=-582
_ReleaseSemaphoreList=-588
_FindSemaphore=-594
_AddSemaphore=-600
_RemSemaphore=-606
_SumKickData=-612
_AddMemList=-618
_CopyMem=-624
_CopyMemQuick=-630
_CacheClearU=-636 
_CacheClearE=-642
_CacheControl=-648
_CreateIORequest=-654
_DeleteIORequest=-660
_CreateMsgPort=-666
_DeleteMsgPort=-672
_ObtainSemaphoreShared=-678
_AllocVec=-684
_FreeVec=-690
_CreatePrivatePool=-696
_DeletePrivatePool=-702
_AllocPooled=-708
_FreePooled=-714
_AttemptSemaphoreShared=-720
_ColdReboot=-726
_StackSwap=-732
_ChildFree=-738
_ChildOrphan=-744
_ChildStatus=-750
_ChildWait=-756
_CachePreDMA=-762
_CachePostDMA=-768
_AddMemHandler=-774
_RemMemHandler=-780
_AddConfigDev=-30 
_AddBootNode=-36 
_AllocBoardMem=-42 
_AllocConfigDev=-48
_AllocExpansionMem=-54
_ConfigBoard=-60
_ConfigChain=-66
_FindConfigDev=-72
_FreeBoardMem=-78
_FreeConfigDev=-84
_FreeExpansionMem=-90
_ReadExpansionByte=-96
_ReadExpansionRom=-102
_RemConfigDev=-108
_WriteExpansionByte=-114
_ObtainConfigBinding=-120
_ReleaseConfigBinding=-126
_SetCurrentBinding=-132
_GetCurrentBinding=-138
_MakeDosNode=-144
_AddDosNode=-150
_ExpansionReserved26=-156 
_WriteExpansionWord=-162
_CreateGadgetA=-30 
_FreeGadgets=-36
_GT_SetGadgetAttrsA=-42
_CreateMenusA=-48
_FreeMenus=-54
_LayoutMenuItemsA=-60
_LayoutMenusA=-66
_GT_GetIMsg=-72
_GT_ReplyIMsg=-78
_GT_RefreshWindow=-84
_GT_BeginRefresh=-90
_GT_EndRefresh=-96
_GT_FilterIMsg=-102
_GT_PostFilterIMsg=-108
_CreateContext=-114
_DrawBevelBoxA=-120
_GetVisualInfoA=-126
_FreeVisualInfoA=-132
_GTReserved0=-138
_GTReserved1=-144
_GTReserved2=-150
_GTReserved3=-156
_GTReserved4=-162
_GTReserved5=-168
_GT_GetGadgetAttrsA=-174
_BltBitMap=-30
_BltTemplate=-36
_ClearEOL=-42
_ClearScreen=-48
_TextLength=-54
_Text=-60
_SetFont=-66
_OpenFont=-72
_CloseFont=-78
_AskSoftStyle=-84
_SetSoftStyle=-90
_AddBob=-96
_AddVSprite=-102
_DoCollision=-108
_DrawGList=-114
_InitGels=-120
_InitMasks=-126
_RemIBob=-132
_RemVSprite=-138
_SetCollision=-144
_SortGList=-150
_AddAnimOb=-156
_Animate=-162
_GetGBuffers=-168
_InitGMasks=-174
_DrawEllipse=-180
_AreaEllipse=-186
_LoadRGB4=-192
_InitRastPort=-198
_InitVPort=-204
_MrgCop=-210
_MakeVPort=-216
_LoadView=-222
_WaitBlit=-228
_SetRast=-234
_Move=-240
_Draw=-246
_AreaMove=-252
_AreaDraw=-258
_AreaEnd=-264
_WaitTOF=-270
_QBlit=-276
_InitArea=-282
_SetRGB4=-288
_QBSBlit=-294
_BltClear=-300
_RectFill=-306
_BltPattern=-312
_ReadPixel=-318
_WritePixel=-324
_Flood=-330
_PolyDraw=-336
_SetAPen=-342
_SetBPen=-348
_SetDrMd=-354
_InitView=-360
_CBump=-366
_CMove=-372
_CWait=-378
_VBeamPos=-384
_InitBitMap=-390
_ScrollRaster=-396
_WaitBOVP=-402
_GetSprite=-408
_FreeSprite=-414
_ChangeSprite=-420
_MoveSprite=-426
_LockLayerRom=-432
_UnlockLayerRom=-438
_SyncSBitMap=-444
_CopySBitMap=-450
_OwnBlitter=-456
_DisownBlitter=-462
_InitTmpRas=-468
_AskFont=-474
_AddFont=-480
_RemFont=-486
_AllocRaster=-492
_FreeRaster=-498
_AndRectRegion=-504
_OrRectRegion=-510
_NewRegion=-516
_ClearRectRegion=-522
_ClearRegion=-528
_DisposeRegion=-534
_FreeVPortCopLists=-540
_FreeCopList=-546
_ClipBlit=-552
_XorRectRegion=-558
_FreeCprList=-564
_GetColorMap=-570
_FreeColorMap=-576
_GetRGB4=-582
_ScrollVPort=-588
_UCopperListInit=-594
_FreeGBuffers=-600
_BltBitMapRastPort=-606
_OrRegionRegion=-612
_XorRegionRegion=-618
_AndRegionRegion=-624
_SetRGB4CM=-630
_BltMaskBitMapRastPort=-636
_GraphicsReserved1=-642
_GraphicsReserved2=-648
_AttemptLockLayerRom=-654
_GfxNew=-660 
_GfxFree=-666
_GfxAssociate=-672
_BitMapScale=-678
_ScaleDiv=-684
_TextExtent=-690
_TextFit=-696
_GfxLookUp=-702
_VideoControl=-708
_OpenMonitor=-714
_CloseMonitor=-720
_FindDisplayInfo=-726
_NextDisplayInfo=-732
_AddDisplayInfo=-738
_AddDisplayInfoData=-744
_SetDisplayInfoData=-750
_GetDisplayInfoData=-756
_FontExtent=-762
_ReadPixelLine8=-768
_WritePixelLine8=-774
_ReadPixelArray8=-780
_WritePixelArray8=-786
_GetVPModeID=-792
_ModeNotAvailable=-798
_WeighTAMatch=-804
_EraseRect=-810
_ExtendFont=-816
_StripFont=-822
_CalcIVG=-828 
_AttachPalExtra=-834
_ObtainBestPenA=-840
_GfxInternal3=-846
_SetRGB32=-852
_GetAPen=-858
_GetBPen=-864
_GetDrMd=-870
_GetOutlinePen=-876
_LoadRGB32=-882
_SetChipRev=-888
_SetABPenDrMd=-894
_GetRGB32=-900
_GfxSpare1=-906
_AllocBitMap=-918
_FreeBitMap=-924
_GetExtSpriteA=-930
_CoerceMode=-936
_ChangeVPBitMap=-942
_ReleasePen=-948
_ObtainPen=-954
_GetBitMapAttr=-960
_AllocDBufInfo=-966
_FreeDBufInfo=-972
_SetOutlinePen=-978
_SetWriteMask=-984
_SetMaxPen=-990
_SetRGB32CM=-996
_ScrollRasterBF=-1002
_FindColor=-1008
_GfxSpare2=-1014
_AllocSpriteDataA=-1020
_ChangeExtSpriteA=-1026
_FreeSpriteData=-1032
_SetRPAttrsA=-1038
_GetRPAttrsA=-1044
_BestModeIDA=-1050
_OBSOLETEGetWBObject=-30 
_OBSOLETEPutWBObject=-36
_GetIcon=-42
_PutIcon=-48
_FreeFreeList=-54
_OBSOLETEFreeWBObject=-60
_OBSOLETEAllocWBObject=-66
_AddFreeList=-72
_GetDiskObject=-78
_PutDiskObject=-84
_FreeDiskObject=-90
_FindToolType=-96
_MatchToolValue=-102
_BumpRevision=-108
_FreeAlloc=-114
_GetDefDiskObject=-120
_PutDefDiskObject=-126
_GetDiskObjectNew=-132
_DeleteDiskObject=-138
_AllocIFF=-30 
_OpenIFF=-36
_ParseIFF=-42
_CloseIFF=-48
_FreeIFF=-54
_ReadChunkBytes=-60
_WriteChunkBytes=-66
_ReadChunkRecords=-72
_WriteChunkRecords=-78
_PushChunk=-84
_PopChunk=-90
_EntryHandler=-102
_ExitHandler=-108
_PropChunk=-114
_PropChunks=-120
_StopChunk=-126
_StopChunks=-132
_CollectionChunk=-138
_CollectionChunks=-144
_StopOnExit=-150
_FindProp=-156
_FindCollection=-162
_FindPropContext=-168
_CurrentChunk=-174
_ParentChunk=-180
_AllocLocalItem=-186
_LocalItemData=-192
_SetLocalItemPurge=-198
_FreeLocalItem=-204
_FindLocalItem=-210
_StoreLocalItem=-216
_StoreItemInContext=-222
_InitIFF=-228
_InitIFFasDOS=-234
_InitIFFasClip=-240
_OpenClipboard=-246
_CloseClipboard=-252
_GoodID=-258
_GoodType=-264
_IDtoStr=-270
_PeekQualifier=-42 
_OpenIntuition=-30
_Intuition=-36
_AddGadget=-42
_ClearDMRequest=-48
_ClearMenuStrip=-54
_ClearPointer=-60
_CloseScreen=-66
_CloseWindow=-72
_CloseWorkBench=-78
_CurrentTime=-84
_DisplayAlert=-90
_DisplayBeep=-96
_DoubleClick=-102
_DrawBorder=-108
_DrawImage=-114
_EndRequest=-120
_GetDefPrefs=-126
_GetPrefs=-132
_InitRequester=-138
_ItemAddress=-144
_ModifyIDCMP=-150
_ModifyProp=-156
_MoveScreen=-162
_MoveWindow=-168
_OffGadget=-174
_OffMenu=-180
_OnGadget=-186
_OnMenu=-192
_OpenScreen=-198
_OpenWindow=-204
_OpenWorkBench=-210
_PrintIText=-216
_RefreshGadgets=-222
_RemoveGadget=-228
_ReportMouse=-234
_Request=-240
_ScreenToBack=-246
_ScreenToFront=-252
_SetDMRequest=-258
_SetMenuStrip=-264
_SetPointer=-270
_SetWindowTitles=-276
_ShowTitle=-282
_SizeWindow=-288
_ViewAddress=-294
_ViewPortAddress=-300
_WindowToBack=-306
_WindowToFront=-312
_WindowLimits=-318
_SetPrefs=-324
_IntuiTextLength=-330
_WBenchToBack=-336
_WBenchToFront=-342
_AutoRequest=-348
_BeginRefresh=-354
_BuildSysRequest=-360
_EndRefresh=-366
_FreeSysRequest=-372
_MakeScreen=-378
_RemakeDisplay=-384
_RethinkDisplay=-390
_AllocRemember=-396
_AlohaWorkbench=-402
_FreeRemember=-408
_LockIBase=-414
_UnlockIBase=-420
_GetScreenData=-426 
_RefreshGList=-432
_AddGList=-438
_RemoveGList=-444
_ActivateWindow=-450
_RefreshWindowFrame=-456
_ActivateGadget=-462
_NewModifyProp=-468
_QueryOverscan=-474 
_MoveWindowInFrontOf=-480
_ChangeWindowBox=-486
_SetEditHook=-492
_SetMouseQueue=-498
_ZipWindow=-504
_LockPubScreen=-510
_UnlockPubScreen=-516
_LockPubScreenList=-522
_UnlockPubScreenList=-528
_NextPubScreen=-534
_SetDefaultPubScreen=-540
_SetPubScreenModes=-546
_PubScreenStatus=-552
_ObtainGIRPort=-558
_ReleaseGIRPort=-564
_GadgetMouse=-570
_SetIPrefs=-576
_GetDefaultPubScreen=-582
_EasyRequestArgs=-588
_BuildEasyRequestArgs=-594
_SysReqHandler=-600
_OpenWindowTagList=-606
_OpenScreenTagList=-612
_DrawImageState=-618
_PointInImage=-624
_EraseImage=-630
_NewObjectA=-636
_DisposeObject=-642
_SetAttrsA=-648
_GetAttr=-654
_SetGadgetAttrsA=-660
_NextObject=-666
_FindClass=-672
_MakeClass=-678
_AddClass=-684
_GetScreenDrawInfo=-690
_FreeScreenDrawInfo=-696
_ResetMenuStrip=-702
_RemoveClass=-708
_FreeClass=-714
_lockPubClass=-720
_unlockPubClass=-726
_AllocScreenBuffer=-768 
_FreeScreenBuffer=-774
_ChangeScreenBuffer=-780
_ScreenDepth=-786
_ScreenPosition=-792
_ScrollWindowRaster=-798
_LendMenus=-804
_DoGadgetMethodA=-810
_SetWindowPointerA=-816
_TimedDisplayAlert=-822
_HelpControl=-828
_SetKeyMapDefault=-30 
_AskKeyMapDefault=-36
_MapRawKey=-42
_MapANSI=-48
_InitLayers=-30
_CreateUpfrontLayer=-36
_CreateBehindLayer=-42
_UpfrontLayer=-48
_BehindLayer=-54
_MoveLayer=-60
_SizeLayer=-66
_ScrollLayer=-72
_BeginUpdate=-78
_EndUpdate=-84
_DeleteLayer=-90
_LockLayer=-96
_UnlockLayer=-102
_LockLayers=-108
_UnlockLayers=-114
_LockLayerInfo=-120
_SwapBitsRastPortClipRect=-126
_WhichLayer=-132
_UnlockLayerInfo=-138
_NewLayerInfo=-144
_DisposeLayerInfo=-150
_FattenLayerInfo=-156
_ThinLayerInfo=-162
_MoveLayerInFrontOf=-168
_InstallClipRegion=-174
_MoveSizeLayer=-180
_CreateUpfrontHookLayer=-186
_CreateBehindHookLayer=-192
_InstallLayerHook=-198
_InstallLayerInfoHook=-204
_SortLayerCR=-210
_DoHookClipRects equ -216
_CloseCatalog=-36
_CloseLocale=-42
_ConvToLower=-48
_ConvToUpper=-54
_FormatDate=-60
_FormatString=-66
_GetCatalogStr=-72
_GetLocaleStr=-78
_IsAlNum=-84
_IsAlpha=-90
_IsCntrl=-96
_IsDigit=-102
_IsGraph=-108
_IsLower=-114
_IsPrint=-120
_IsPunct=-126
_IsSpace=-132
_IsUpper=-138
_IsXDigit=-144
_OpenCatalogA=-150
_OpenLocale=-156
_ParseDate=-162
_StrConvert=-174
_StrnCmp=-180
_SPFix=-30
_SPFlt=-36
_SPCmp=-42
_SPTst=-48
_SPAbs=-54
_SPNeg=-60
_SPAdd=-66
_SPSub=-72
_SPMul=-78
_SPDiv=-84
_SPFloor=-90 
_SPCeil=-96
_IEEEDPFix=-30
_IEEEDPFlt=-36
_IEEEDPCmp=-42
_IEEEDPTst=-48
_IEEEDPAbs=-54
_IEEEDPNeg=-60
_IEEEDPAdd=-66
_IEEEDPSub=-72
_IEEEDPMul=-78
_IEEEDPDiv=-84
_IEEEDPFloor=-90 
_IEEEDPCeil=-96
_IEEEDPAtan=-30
_IEEEDPSin=-36
_IEEEDPCos=-42
_IEEEDPTan=-48
_IEEEDPSincos=-54
_IEEEDPSinh=-60
_IEEEDPCosh=-66
_IEEEDPTanh=-72
_IEEEDPExp=-78
_IEEEDPLog=-84
_IEEEDPPow=-90
_IEEEDPSqrt=-96
_IEEEDPTieee=-102
_IEEEDPFieee=-108
_IEEEDPAsin=-114
_IEEEDPAcos=-120
_IEEEDPLog10=-126
_IEEESPFix=-30
_IEEESPFlt=-36
_IEEESPCmp=-42
_IEEESPTst=-48
_IEEESPAbs=-54
_IEEESPNeg=-60
_IEEESPAdd=-66
_IEEESPSub=-72
_IEEESPMul=-78
_IEEESPDiv=-84
_IEEESPFloor=-90 
_IEEESPCeil=-96
_IEEESPAtan=-30
_IEEESPSin=-36
_IEEESPCos=-42
_IEEESPTan=-48
_IEEESPSincos=-54
_IEEESPSinh=-60
_IEEESPCosh=-66
_IEEESPTanh=-72
_IEEESPExp=-78
_IEEESPLog=-84
_IEEESPPow=-90
_IEEESPSqrt=-96
_IEEESPTieee=-102
_IEEESPFieee=-108
_IEEESPAsin=-114
_IEEESPAcos=-120
_IEEESPLog10=-126
_SPAtan=-30
_SPSin=-36
_SPCos=-42
_SPTan=-48
_SPSincos=-54
_SPSinh=-60
_SPCosh=-66
_SPTanh=-72
_SPExp=-78
_SPLog=-84
_SPPow=-90
_SPSqrt=-96
_SPTieee=-102
_SPFieee=-108
_SPAsin=-114 
_SPAcos=-120
_SPLog10=-126
_AllocMiscResource=-6
_FreeMiscResource=-12
_AllocPotBits=-6
_FreePotBits=-12
_WritePotgo=-18
_KillRAD0=-42 
_KillRAD=-48 
_CreateArgString=-126 
_DeleteArgString=-132
_LengthArgString=-138
_CreateRexxMsg=-144
_DeleteRexxMsg=-150
_ClearRexxMsg=-156
_FillRexxMsg=-162
_IsRexxMsg=-168
_LockRexxBase=-450
_UnlockRexxBase=-456
_AddTime=-42
_SubTime=-48
_CmpTime=-54
_ReadEClock=-60
_GetSysTime=-66
_Translate=-30
_FindTagItem=-30 
_GetTagData=-36
_PackBoolTags=-42
_NextTagItem=-48
_FilterTagChanges=-54
_MapTags=-60
_AllocateTagItems=-66
_CloneTagItems=-72
_FreeTagItems=-78
_RefreshTagItemClones=-84
_TagInArray=-90
_FilterTagItems=-96
_CallHookPkt=-102
_Amiga2Date=-120
_Date2Amiga=-126
_CheckDate=-132
_SMult32=-138
_UMult32=-144
_SDivMod32=-150
_UDivMod32=-156
_Stricmp=-162
_Strnicmp=-168
_ToUpper=-174
_ToLower=-180
_ApplyTagChanges=-186 
_SMult64=-198
_UMult64=-204
_PackStructureTags=-210
_UnpackStructureTags=-216
_AddNamedObject=-222
_AllocNamedObjectA=-228
_AttemptRemNamedObject=-234
_FindNamedObject=-240
_FreeNamedObject=-246
_NamedObjectName=-252
_ReleaseNamedObject=-258
_RemNamedObject=-264
_GetUniqueID=-270
_UpdateWorkbench=-30 
_QuoteWorkbench=-36
_StartWorkbench=-42
_AddAppWindow=-48
_RemoveAppWindow=-54
_AddAppIconA=-60
_RemoveAppIcon=-66
_AddAppMenuItemA=-72
_RemoveAppMenuItem=-78
_WBInfo=-90 
 ENDC 

