;
; This file is part of ArtPRO.
; Copyright (C) 1996-2018 Frank Pagels
;
; ArtPRO is free software: you can redistribute it and/or modify
; it under the terms of the GNU General Public License as published by
; the Free Software Foundation, either version 3 of the License, or
; (at your option) any later version.
;
; ArtPRO is distributed in the hope that it will be useful,
; but WITHOUT ANY WARRANTY; without even the implied warranty of
; MERCHANTABILITY or FITNESS FOR A PARTICULAR PURPOSE.  See the
; GNU General Public License for more details.
;
; You should have received a copy of the GNU General Public License
; along with ArtPRO.  If not, see <http://www.gnu.org/licenses/>.
;
*
*  Source machine generated by GadToolsBox V2.0b
*  which is (c) Copyright 1991-1993 Jaba Development
*
*  GUI Designed by : -- Unnamed --
*

GD_xsize                               EQU    0
GD_ysize                               EQU    1
GD_xslider                             EQU    2
GD_widthpro                            EQU    3
GD_heightpro                           EQU    4
GD_Gadget50                            EQU    5
GD_div2                                EQU    6
GD_mul2width                           EQU    7
GD_div2height                          EQU    8
GD_mul2height                          EQU    9
GD_keepascpect                         EQU    10
GD_Gadget110                           EQU    11
GD_reset                               EQU    12
GD_ok                                  EQU    13
GD_cancel                              EQU    14

GDX_xsize                              EQU    0
GDX_ysize                              EQU    1
GDX_xslider                            EQU    2
GDX_widthpro                           EQU    3
GDX_heightpro                          EQU    4
GDX_Gadget50                           EQU    5
GDX_div2                               EQU    6
GDX_mul2width                          EQU    7
GDX_div2height                         EQU    8
GDX_mul2height                         EQU    9
GDX_keepascpect                        EQU    10
GDX_Gadget110                          EQU    11
GDX_reset                              EQU    12
GDX_ok                                 EQU    13
GDX_cancel                             EQU    14

    XREF    Scr
    XREF    VisualInfo
    XREF    PubScreenName
    XREF    Project0Wnd
    XREF    Project0GList
    XREF    Project0Gadgets
    XREF    Project0Left
    XREF    Project0Top
    XREF    Project0Width
    XREF    Project0Height
    XREF    Font
    XREF    Attr
    XREF    FontX
    XREF    FontY
    XREF    OffX
    XREF    OffY
    XREF    Project0WindowTags
    XREF    SetupScreen
    XREF    CloseDownScreen
    XREF    OpenProject0Window
    XREF    CloseProject0Window

