;
; This file is part of ArtPRO.
; Copyright (C) 1996-2018 Frank Pagels
;
; ArtPRO is free software: you can redistribute it and/or modify
; it under the terms of the GNU General Public License as published by
; the Free Software Foundation, either version 3 of the License, or
; (at your option) any later version.
;
; ArtPRO is distributed in the hope that it will be useful,
; but WITHOUT ANY WARRANTY; without even the implied warranty of
; MERCHANTABILITY or FITNESS FOR A PARTICULAR PURPOSE.  See the
; GNU General Public License for more details.
;
; You should have received a copy of the GNU General Public License
; along with ArtPRO.  If not, see <http://www.gnu.org/licenses/>.
;
*
*  Source machine generated by GadToolsBox V2.0b
*  which is (c) Copyright 1991-1993 Jaba Development
*
*  GUI Designed by : Captain Bifat
*

GD_ren_palmode                         EQU    0
GD_ren_colorsslider                    EQU    1
GD_ten_textcolors                      EQU    2
GD_ren_usedcolorslide                  EQU    3
GD_ren_firstcolorslide                 EQU    4
GD_ren_sortmode                        EQU    5
GD_ren_sortorder                       EQU    6
GD_ren_custom                          EQU    7
GD_ren_dither                          EQU    8
GD_ren_amountslide                     EQU    9
GD_ren_amount                          EQU    10
GD_ren_use                             EQU    11
GD_ren_cancel                          EQU    12
GD_ren_render                          EQU    13
GD_ren_usedcolors                      EQU    14
GD_ren_firstcolor                      EQU    15

GDX_ren_palmode                        EQU    0
GDX_ren_colorsslider                   EQU    1
GDX_ten_textcolors                     EQU    2
GDX_ren_usedcolorslide                 EQU    3
GDX_ren_firstcolorslide                EQU    4
GDX_ren_sortmode                       EQU    5
GDX_ren_sortorder                      EQU    6
GDX_ren_custom                         EQU    7
GDX_ren_dither                         EQU    8
GDX_ren_amountslide                    EQU    9
GDX_ren_amount                         EQU    10
GDX_ren_use                            EQU    11
GDX_ren_cancel                         EQU    12
GDX_ren_render                         EQU    13
GDX_ren_usedcolors                     EQU    14
GDX_ren_firstcolor                     EQU    15

    XREF    Scr
    XREF    VisualInfo
    XREF    Project0Wnd
    XREF    Project0GList
    XREF    Project0Gadgets
    XREF    Project0Left
    XREF    Project0Top
    XREF    Project0Width
    XREF    Project0Height
    XREF    ren_palmodeLabels
    XREF    ren_sortmodeLabels
    XREF    ren_sortorderLabels
    XREF    ren_ditherLabels
    XREF    topaz8
    XREF    Project0WindowTags
    XREF    ScreenTags
    XREF    SetupScreen
    XREF    CloseDownScreen
    XREF    OpenProject0Window
    XREF    CloseProject0Window

